<?xml version="1.0" standalone="no"?>
<svg width="40" height="40" version="1.1" xmlns="https://www.w3.org/2000/svg">
	<line x1="1" x2="40" y1="20" y2="20" stroke="black" fill="transparent" stroke-width="2" />
	<polyline points="20 0 0 20 20 40" 
		stroke="black" fill="transparent" stroke-width="2" />
</svg>
